2023-06-03 14:38:01,341 [INFO] Activator:176 - 


2023-06-03 14:38:01,428 [INFO] Activator:177 - !SESSION log4j initialized
2023-06-03 14:38:33,946 [INFO] LogOutputStream:77 - [STDOUT_REDIRECT] 
2023-06-03 14:39:07,608 [ERROR] LogOutputStream:75 - [STDERR_REDIRECT] SLF4J: Failed to load class "org.slf4j.impl.StaticLoggerBinder".
2023-06-03 14:39:07,610 [ERROR] LogOutputStream:75 - [STDERR_REDIRECT] SLF4J: Defaulting to no-operation (NOP) logger implementation
2023-06-03 14:39:07,618 [ERROR] LogOutputStream:75 - [STDERR_REDIRECT] SLF4J: See http://www.slf4j.org/codes.html#StaticLoggerBinder for further details.
