../library/src/ring_buffer.c:11:6:ring_buffer_reset	16	static
../library/src/ring_buffer.c:18:9:ring_buffer_empty	16	static
../library/src/ring_buffer.c:23:9:ring_buffer_init	24	static
../library/src/ring_buffer.c:38:9:ring_buffer_full	16	static
../library/src/ring_buffer.c:43:6:ring_buffer_put	16	static
../library/src/ring_buffer.c:56:9:ring_buffer_get	16	static
../library/src/ring_buffer.c:69:8:ring_buffer_size	24	static
../library/src/ring_buffer.c:86:8:ring_buffer_capacity	16	static
../library/src/ring_buffer.c:91:10:ring_buffer_fetch	16	static
