../Core/Src/main.c:65:4:__io_putchar	16	static
../Core/Src/main.c:95:5:main	8	static
../Core/Src/main.c:150:6:SystemClock_Config	88	static
../Core/Src/main.c:196:13:MX_I2C3_Init	8	static
../Core/Src/main.c:244:13:MX_SPI5_Init	8	static
../Core/Src/main.c:282:13:MX_USART1_UART_Init	8	static
../Core/Src/main.c:311:13:MX_FMC_Init	40	static
../Core/Src/main.c:362:13:MX_GPIO_Init	64	static
../Core/Src/main.c:410:6:Error_Handler	4	static,ignoring_inline_asm
