../Drivers/CMSIS/Include/core_cm4.h:2064:26:ITM_SendChar	16	static,ignoring_inline_asm
../Core/Src/main.c:64:5:_write	32	static
../Core/Src/main.c:99:5:main	48	static
../Core/Src/main.c:181:6:SystemClock_Config	88	static
../Core/Src/main.c:227:13:MX_CRC_Init	8	static
../Core/Src/main.c:253:13:MX_DMA2D_Init	8	static
../Core/Src/main.c:290:13:MX_I2C3_Init	8	static
../Core/Src/main.c:338:13:MX_LTDC_Init	64	static
../Core/Src/main.c:400:13:MX_SPI5_Init	8	static
../Core/Src/main.c:438:13:MX_TIM1_Init	32	static
../Core/Src/main.c:484:13:MX_USART1_UART_Init	8	static
../Core/Src/main.c:513:13:MX_FMC_Init	40	static
../Core/Src/main.c:564:13:MX_GPIO_Init	64	static
../Core/Src/main.c:665:6:StartDefaultTask	16	static
../Core/Src/main.c:686:6:HAL_TIM_PeriodElapsedCallback	16	static
../Core/Src/main.c:703:6:Error_Handler	4	static,ignoring_inline_asm
